quarto-inputb9d438d7
…
$formattedValue
[1] "Folio encuesta"

attr(,"class")
[1] "CELL_TEXT"   "SHEETS_CELL"

Lectura de información por celda 4

Extraer el dato de valor formateado formattedValue para cada celdilla.

df_cels |> 
  rowwise() |> 
  mutate(formattedValue = pluck(cell, 'formattedValue'))

# A tibble: 12,288 × 5
# Rowwise: 
     row   col loc   cell       formattedValue                                  
   <int> <int> <chr> <list>     <chr>                                           
 1     1     1 A1    <CELL_TEX> Folio encuesta                                  
 2     1     2 B1    <CELL_TEX> Registrar Sexo                                  
 3     1     3 C1    <CELL_TEX> edad_cat                                        
 4     1     4 D1    <CELL_TEX> 1 - (Eliminar la pobreza) Para comenzar, le voy…
 5     1     5 E1    <CELL_TEX> 2 - (Ser un país desarrollado) Para comenzar, l…
 6     1     6 F1    <CELL_TEX> 3 - (Detener el daño al medio ambiente) Para co…
 7     2     1 A2    <CELL_NUM> 100101                                          
 8     2     2 B2    <CELL_NUM> 2                                               
 9     2     3 C2    <CELL_NUM> 2                                               
10     2     4 D2    <CELL_NUM> 4                                               
# ℹ 12,278 more rows
…
