quarto-input2b7166a0
…
lile_peers[grepl('mastodon.social', lile_peers)]

[1] "snowmastodon.social"      "mastodon.socialspill.com"
[3] "mastodon.social"          "swedishmastodon.social"  

Mastodon: rtoot 3

get_instance_trends(
  instance = custom_instance,
  token = NULL,
  limit = 10,
  anonymous = TRUE
)

# A tibble: 70 × 5
   name         url                               day        accounts  uses
   <chr>        <chr>                             <date>        <int> <int>
 1 tunetuesday  https://lile.cl/tags/tunetuesday  2024-06-25       45    51
 2 tunetuesday  https://lile.cl/tags/tunetuesday  2024-06-24        0     0
 3 tunetuesday  https://lile.cl/tags/tunetuesday  2024-06-23        0     0
 4 tunetuesday  https://lile.cl/tags/tunetuesday  2024-06-22        0     0
 5 tunetuesday  https://lile.cl/tags/tunetuesday  2024-06-21        0     0
 6 tunetuesday  https://lile.cl/tags/tunetuesday  2024-06-20        0     0
 7 tunetuesday  https://lile.cl/tags/tunetuesday  2024-06-19        2     2
 8 forrockssake https://lile.cl/tags/forrockssake 2024-06-25       40    45
 9 forrockssake https://lile.cl/tags/forrockssake 2024-06-24        0     0
10 forrockssake https://lile.cl/tags/forrockssake 2024-06-23        0     0
# ℹ 60 more rows
…
